<svg width="60" height="68" viewBox="0 0 60 68" fill="none" xmlns="http://www.w3.org/2000/svg">
<path d="M50 54C49.1159 54 48.2681 54.3512 47.643 54.9763C47.0179 55.6014 46.6667 56.4493 46.6667 57.3333C46.6667 58.2174 46.3155 59.0652 45.6904 59.6903C45.0652 60.3155 44.2174 60.6667 43.3333 60.6667H10C9.11594 60.6667 8.2681 60.3155 7.64298 59.6903C7.01786 59.0652 6.66667 58.2174 6.66667 57.3333V10.6667C6.66667 9.7826 7.01786 8.93476 7.64298 8.30963C8.2681 7.68451 9.11594 7.33332 10 7.33332H26.6667V17.3333C26.6667 19.9855 27.7202 22.529 29.5956 24.4044C31.471 26.2798 34.0145 27.3333 36.6667 27.3333H46.6667V30.6667C46.6667 31.5507 47.0179 32.3986 47.643 33.0237C48.2681 33.6488 49.1159 34 50 34C50.8841 34 51.7319 33.6488 52.357 33.0237C52.9821 32.3986 53.3333 31.5507 53.3333 30.6667V24C53.3333 24 53.3333 24 53.3333 23.8C53.2986 23.4938 53.2316 23.1921 53.1333 22.9C53.1475 22.8005 53.1475 22.6995 53.1333 22.6C52.9731 22.2573 52.7593 21.9422 52.5 21.6667L32.5 1.66666C32.2244 1.40738 31.9094 1.19359 31.5667 1.03332H31.2333C30.9189 0.86476 30.5822 0.741326 30.2333 0.666656H10C7.34784 0.666656 4.8043 1.72023 2.92893 3.59559C1.05357 5.47095 0 8.01449 0 10.6667V57.3333C0 59.9855 1.05357 62.529 2.92893 64.4044C4.8043 66.2798 7.34784 67.3333 10 67.3333H43.3333C45.9855 67.3333 48.529 66.2798 50.4044 64.4044C52.2798 62.529 53.3333 59.9855 53.3333 57.3333C53.3333 56.4493 52.9821 55.6014 52.357 54.9763C51.7319 54.3512 50.8841 54 50 54ZM33.3333 12.0333L41.9667 20.6667H36.6667C35.7826 20.6667 34.9348 20.3155 34.3096 19.6903C33.6845 19.0652 33.3333 18.2174 33.3333 17.3333V12.0333ZM56.6667 40.6667H48.3333C47.8946 40.6641 47.4598 40.7482 47.0536 40.9141C46.6475 41.08 46.2781 41.3244 45.9667 41.6333L41.8333 45.8L32.5 35.1333C32.1998 34.7894 31.8321 34.5107 31.4197 34.3147C31.0074 34.1187 30.5591 34.0095 30.1028 33.9939C29.6465 33.9783 29.1919 34.0566 28.7671 34.2239C28.3423 34.3912 27.9564 34.644 27.6333 34.9667L21.9667 40.6667H16.6667C15.7826 40.6667 14.9348 41.0178 14.3096 41.643C13.6845 42.2681 13.3333 43.1159 13.3333 44C13.3333 44.884 13.6845 45.7319 14.3096 46.357C14.9348 46.9821 15.7826 47.3333 16.6667 47.3333H23.3333C23.772 47.3359 24.2069 47.2518 24.613 47.0859C25.0191 46.92 25.3885 46.6756 25.7 46.3667L30 42.2L39.3333 52.8667C39.6344 53.2099 40.0028 53.4875 40.4157 53.6825C40.8285 53.8774 41.277 53.9855 41.7333 54C42.172 54.0025 42.6069 53.9184 43.013 53.7526C43.4191 53.5867 43.7885 53.3423 44.1 53.0333L49.7 47.3333H56.6667C57.5507 47.3333 58.3986 46.9821 59.0237 46.357C59.6488 45.7319 60 44.884 60 44C60 43.1159 59.6488 42.2681 59.0237 41.643C58.3986 41.0178 57.5507 40.6667 56.6667 40.6667Z" fill="#222222"/>
</svg>
