<svg width="18" height="17" viewBox="0 0 18 17" fill="none" xmlns="http://www.w3.org/2000/svg">
<g id="Icon/Outline/twitter">
<path id="Mask" fill-rule="evenodd" clip-rule="evenodd" d="M16.0156 2.65431V2.65631V2.65431ZM5.51263 13.9973C5.53663 13.9973 5.56263 13.9983 5.58663 14.0003C11.2816 13.9633 14.6806 9.61231 14.6806 5.40631C14.6806 5.02431 14.8766 4.77731 15.0506 4.55831C15.2086 4.35831 15.4536 4.05031 15.6716 3.60631C14.8786 3.59831 14.1706 3.24631 13.7586 2.76431C13.3276 2.30331 12.7086 2.02131 12.0406 2.00131C11.3966 1.97531 10.7396 2.22331 10.2516 2.68631C9.60163 3.30331 9.32363 4.23431 9.52563 5.11431L9.78663 6.25331L8.62063 6.33531C5.60463 6.56131 3.51463 5.27031 2.07963 3.93431C2.08563 5.95431 2.75663 8.64931 5.80663 10.3873L6.76463 10.9333L6.12763 11.8343C5.46463 12.7733 4.46663 13.3723 3.45063 13.7553C4.12163 13.9153 4.81163 13.9973 5.49963 13.9973H5.51163H5.51263ZM5.51263 16.0003C5.48663 16.0003 5.45863 15.9993 5.43263 15.9973C3.82963 15.9863 2.22163 15.6133 0.777628 14.9143C0.234628 14.6503 -0.072372 14.0723 0.014628 13.4723C0.102628 12.8653 0.568628 12.3893 1.17263 12.2913C2.21763 12.1193 3.08463 11.8133 3.71263 11.4043C-0.164372 8.50531 -0.062372 4.16531 0.188628 2.32731C0.262628 1.78931 0.645628 1.34031 1.16363 1.18331C1.68963 1.02331 2.23463 1.18331 2.59463 1.59231C4.13063 3.33331 5.66563 4.20831 7.46563 4.34131C7.51763 3.17631 8.01363 2.05331 8.87463 1.23531C9.75163 0.402308 10.8986 -0.0336924 12.1026 0.00230764C13.3076 0.0393076 14.4256 0.547308 15.2496 1.43231C15.3336 1.52831 15.6476 1.70231 16.0266 1.53231C16.5236 1.30931 17.0886 1.38331 17.5006 1.72731C17.9116 2.06831 18.0866 2.60531 17.9586 3.12831C17.6356 4.45931 16.9976 5.31731 16.6756 5.72831C16.5076 10.8333 12.3596 16.0003 5.51263 16.0003Z" fill="#231F20"/>
<mask id="mask0" mask-type="alpha" maskUnits="userSpaceOnUse" x="0" y="0" width="18" height="17">
<path id="Mask_2" fill-rule="evenodd" clip-rule="evenodd" d="M16.0156 2.65431V2.65631V2.65431ZM5.51263 13.9973C5.53663 13.9973 5.56263 13.9983 5.58663 14.0003C11.2816 13.9633 14.6806 9.61231 14.6806 5.40631C14.6806 5.02431 14.8766 4.77731 15.0506 4.55831C15.2086 4.35831 15.4536 4.05031 15.6716 3.60631C14.8786 3.59831 14.1706 3.24631 13.7586 2.76431C13.3276 2.30331 12.7086 2.02131 12.0406 2.00131C11.3966 1.97531 10.7396 2.22331 10.2516 2.68631C9.60163 3.30331 9.32363 4.23431 9.52563 5.11431L9.78663 6.25331L8.62063 6.33531C5.60463 6.56131 3.51463 5.27031 2.07963 3.93431C2.08563 5.95431 2.75663 8.64931 5.80663 10.3873L6.76463 10.9333L6.12763 11.8343C5.46463 12.7733 4.46663 13.3723 3.45063 13.7553C4.12163 13.9153 4.81163 13.9973 5.49963 13.9973H5.51163H5.51263ZM5.51263 16.0003C5.48663 16.0003 5.45863 15.9993 5.43263 15.9973C3.82963 15.9863 2.22163 15.6133 0.777628 14.9143C0.234628 14.6503 -0.072372 14.0723 0.014628 13.4723C0.102628 12.8653 0.568628 12.3893 1.17263 12.2913C2.21763 12.1193 3.08463 11.8133 3.71263 11.4043C-0.164372 8.50531 -0.062372 4.16531 0.188628 2.32731C0.262628 1.78931 0.645628 1.34031 1.16363 1.18331C1.68963 1.02331 2.23463 1.18331 2.59463 1.59231C4.13063 3.33331 5.66563 4.20831 7.46563 4.34131C7.51763 3.17631 8.01363 2.05331 8.87463 1.23531C9.75163 0.402308 10.8986 -0.0336924 12.1026 0.00230764C13.3076 0.0393076 14.4256 0.547308 15.2496 1.43231C15.3336 1.52831 15.6476 1.70231 16.0266 1.53231C16.5236 1.30931 17.0886 1.38331 17.5006 1.72731C17.9116 2.06831 18.0866 2.60531 17.9586 3.12831C17.6356 4.45931 16.9976 5.31731 16.6756 5.72831C16.5076 10.8333 12.3596 16.0003 5.51263 16.0003Z" fill="white"/>
</mask>
<g mask="url(#mask0)">
<g id="&#240;&#159;&#142;&#168; Color">
<rect id="Base" x="-3" y="-4" width="24" height="24" fill="#0D1C2E"/>
</g>
</g>
</g>
</svg>
