<svg width="16" height="16" viewBox="0 0 16 16" fill="none" xmlns="http://www.w3.org/2000/svg">
<g opacity="0.3">
<path d="M12.6668 1.33333H3.3335C2.80306 1.33333 2.29436 1.54404 1.91928 1.91911C1.54421 2.29419 1.3335 2.8029 1.3335 3.33333V4.11333C1.3334 4.38862 1.39014 4.66097 1.50016 4.91333V4.95333C1.59435 5.16731 1.72776 5.36177 1.8935 5.52666L6.00016 9.60666V14C5.99994 14.1133 6.02859 14.2248 6.08341 14.3239C6.13823 14.4231 6.21742 14.5066 6.3135 14.5667C6.41959 14.6324 6.54201 14.6671 6.66683 14.6667C6.77119 14.666 6.87395 14.6409 6.96683 14.5933L9.6335 13.26C9.74344 13.2046 9.83589 13.1198 9.90061 13.0151C9.96533 12.9104 9.99979 12.7898 10.0002 12.6667V9.60666L14.0802 5.52666C14.2459 5.36177 14.3793 5.16731 14.4735 4.95333V4.91333C14.5927 4.66295 14.6585 4.39051 14.6668 4.11333V3.33333C14.6668 2.8029 14.4561 2.29419 14.081 1.91911C13.706 1.54404 13.1973 1.33333 12.6668 1.33333ZM8.86016 8.85999C8.79838 8.92229 8.74949 8.99617 8.71632 9.07739C8.68314 9.15862 8.66632 9.24559 8.66683 9.33333V12.2533L7.3335 12.92V9.33333C7.334 9.24559 7.31719 9.15862 7.28401 9.07739C7.25083 8.99617 7.20195 8.92229 7.14016 8.85999L3.60683 5.33333H12.3935L8.86016 8.85999ZM13.3335 3.99999H2.66683V3.33333C2.66683 3.15652 2.73707 2.98695 2.86209 2.86192C2.98712 2.7369 3.15669 2.66666 3.3335 2.66666H12.6668C12.8436 2.66666 13.0132 2.7369 13.1382 2.86192C13.2633 2.98695 13.3335 3.15652 13.3335 3.33333V3.99999Z" fill="#222222"/>
</g>
</svg>
