<svg width="32" height="32" viewBox="0 0 32 32" fill="none" xmlns="http://www.w3.org/2000/svg">
<path d="M24 24C23.6464 24 23.3072 24.1405 23.0572 24.3905C22.8071 24.6406 22.6667 24.9797 22.6667 25.3333C22.6667 25.687 22.5262 26.0261 22.2761 26.2761C22.0261 26.5262 21.687 26.6667 21.3333 26.6667H8C7.64638 26.6667 7.30724 26.5262 7.05719 26.2761C6.80714 26.0261 6.66667 25.687 6.66667 25.3333V6.66667C6.66667 6.31305 6.80714 5.97391 7.05719 5.72386C7.30724 5.47381 7.64638 5.33333 8 5.33333H14.6667V9.33333C14.6667 10.3942 15.0881 11.4116 15.8382 12.1618C16.5884 12.9119 17.6058 13.3333 18.6667 13.3333H22.6667V14.6667C22.6667 15.0203 22.8071 15.3594 23.0572 15.6095C23.3072 15.8595 23.6464 16 24 16C24.3536 16 24.6928 15.8595 24.9428 15.6095C25.1929 15.3594 25.3333 15.0203 25.3333 14.6667V12C25.3333 12 25.3333 12 25.3333 11.92C25.3194 11.7975 25.2926 11.6768 25.2533 11.56C25.259 11.5202 25.259 11.4798 25.2533 11.44C25.1892 11.3029 25.1037 11.1769 25 11.0667L17 3.06667C16.8898 2.96296 16.7638 2.87744 16.6267 2.81333H16.4933C16.3675 2.74591 16.2329 2.69653 16.0933 2.66667H8C6.93913 2.66667 5.92172 3.08809 5.17157 3.83824C4.42143 4.58839 4 5.6058 4 6.66667V25.3333C4 26.3942 4.42143 27.4116 5.17157 28.1618C5.92172 28.9119 6.93913 29.3333 8 29.3333H21.3333C22.3942 29.3333 23.4116 28.9119 24.1618 28.1618C24.9119 27.4116 25.3333 26.3942 25.3333 25.3333C25.3333 24.9797 25.1929 24.6406 24.9428 24.3905C24.6928 24.1405 24.3536 24 24 24ZM17.3333 7.21333L20.7867 10.6667H18.6667C18.313 10.6667 17.9739 10.5262 17.7239 10.2761C17.4738 10.0261 17.3333 9.68696 17.3333 9.33333V7.21333ZM26.6667 18.6667H23.3333C23.1579 18.6657 22.9839 18.6993 22.8215 18.7656C22.659 18.832 22.5113 18.9298 22.3867 19.0533L20.7333 20.72L17 16.4533C16.8799 16.3157 16.7328 16.2043 16.5679 16.1259C16.4029 16.0475 16.2237 16.0038 16.0411 15.9976C15.8586 15.9913 15.6768 16.0226 15.5068 16.0896C15.3369 16.1565 15.1826 16.2576 15.0533 16.3867L12.7867 18.6667H10.6667C10.313 18.6667 9.97391 18.8071 9.72386 19.0572C9.47381 19.3072 9.33333 19.6464 9.33333 20C9.33333 20.3536 9.47381 20.6928 9.72386 20.9428C9.97391 21.1929 10.313 21.3333 10.6667 21.3333H13.3333C13.5088 21.3343 13.6828 21.3007 13.8452 21.2344C14.0077 21.168 14.1554 21.0702 14.28 20.9467L16 19.28L19.7333 23.5467C19.8538 23.6839 20.0011 23.795 20.1663 23.873C20.3314 23.951 20.5108 23.9942 20.6933 24C20.8688 24.001 21.0428 23.9674 21.2052 23.901C21.3677 23.8347 21.5154 23.7369 21.64 23.6133L23.88 21.3333H26.6667C27.0203 21.3333 27.3594 21.1929 27.6095 20.9428C27.8595 20.6928 28 20.3536 28 20C28 19.6464 27.8595 19.3072 27.6095 19.0572C27.3594 18.8071 27.0203 18.6667 26.6667 18.6667Z" fill="white"/>
</svg>
