<svg width="21" height="20" viewBox="0 0 21 20" fill="none" xmlns="http://www.w3.org/2000/svg">
<g id="Icon/Outline/message-circle">
<path id="Mask" fill-rule="evenodd" clip-rule="evenodd" d="M12.16 14C8.7632 14 6 11.2368 6 7.84C6 6.8252 6.8256 6 7.84 6C7.944 6 8.0468 6.0088 8.1464 6.026C8.2436 6.0416 8.3416 6.0664 8.4364 6.0992C8.5668 6.1444 8.6644 6.2536 8.6952 6.388L9.2432 8.7736C9.2732 8.9048 9.2352 9.0424 9.142 9.14C9.0872 9.1968 9.086 9.198 8.59 9.4576C8.9916 10.3272 9.6896 11.0228 10.542 11.4108C10.8016 10.9144 10.8032 10.9128 10.86 10.8584C10.958 10.7648 11.096 10.7284 11.2268 10.7572L13.6124 11.3048C13.7464 11.3356 13.8556 11.4332 13.9008 11.5632C13.9336 11.6576 13.958 11.7552 13.9744 11.8556C13.9912 11.9544 14 12.0568 14 12.16C14 13.1748 13.1748 14 12.16 14ZM17.8986 11.2942C17.3916 14.5482 14.7686 17.2472 11.5196 17.8562C9.9506 18.1522 8.3526 17.9832 6.9026 17.3692C6.4916 17.1952 6.0666 17.1072 5.6496 17.1072C5.4596 17.1072 5.2716 17.1252 5.0866 17.1622L2.2746 17.7242L2.8376 14.9072C2.9556 14.3222 2.8836 13.6962 2.6306 13.0972C2.0166 11.6472 1.8486 10.0502 2.1436 8.48017C2.7526 5.23117 5.4506 2.60817 8.7056 2.10117C11.2956 1.69817 13.8286 2.51417 15.6566 4.34217C17.4856 6.17117 18.3026 8.70517 17.8986 11.2942ZM17.0716 2.92817C14.7866 0.644171 11.6266 -0.374829 8.3976 0.124171C4.3206 0.760171 0.9406 4.04417 0.1776 8.11117C-0.1904 10.0692 0.0216002 12.0632 0.7886 13.8762C0.8856 14.1072 0.9156 14.3222 0.8776 14.5152L0.0196002 18.8032C-0.0463998 19.1312 0.0566002 19.4702 0.2936 19.7062C0.4826 19.8962 0.7376 19.9992 1.0006 19.9992C1.0656 19.9992 1.1306 19.9932 1.1966 19.9802L5.4796 19.1232C5.7256 19.0762 5.9636 19.1452 6.1226 19.2112C7.9376 19.9782 9.9316 20.1892 11.8876 19.8222C15.9556 19.0592 19.2396 15.6792 19.8756 11.6022C20.3776 8.37517 19.3566 5.21317 17.0716 2.92817Z" fill="#231F20"/>
<mask id="mask0" mask-type="alpha" maskUnits="userSpaceOnUse" x="0" y="0" width="21" height="20">
<path id="Mask_2" fill-rule="evenodd" clip-rule="evenodd" d="M12.16 14C8.7632 14 6 11.2368 6 7.84C6 6.8252 6.8256 6 7.84 6C7.944 6 8.0468 6.0088 8.1464 6.026C8.2436 6.0416 8.3416 6.0664 8.4364 6.0992C8.5668 6.1444 8.6644 6.2536 8.6952 6.388L9.2432 8.7736C9.2732 8.9048 9.2352 9.0424 9.142 9.14C9.0872 9.1968 9.086 9.198 8.59 9.4576C8.9916 10.3272 9.6896 11.0228 10.542 11.4108C10.8016 10.9144 10.8032 10.9128 10.86 10.8584C10.958 10.7648 11.096 10.7284 11.2268 10.7572L13.6124 11.3048C13.7464 11.3356 13.8556 11.4332 13.9008 11.5632C13.9336 11.6576 13.958 11.7552 13.9744 11.8556C13.9912 11.9544 14 12.0568 14 12.16C14 13.1748 13.1748 14 12.16 14ZM17.8986 11.2942C17.3916 14.5482 14.7686 17.2472 11.5196 17.8562C9.9506 18.1522 8.3526 17.9832 6.9026 17.3692C6.4916 17.1952 6.0666 17.1072 5.6496 17.1072C5.4596 17.1072 5.2716 17.1252 5.0866 17.1622L2.2746 17.7242L2.8376 14.9072C2.9556 14.3222 2.8836 13.6962 2.6306 13.0972C2.0166 11.6472 1.8486 10.0502 2.1436 8.48017C2.7526 5.23117 5.4506 2.60817 8.7056 2.10117C11.2956 1.69817 13.8286 2.51417 15.6566 4.34217C17.4856 6.17117 18.3026 8.70517 17.8986 11.2942ZM17.0716 2.92817C14.7866 0.644171 11.6266 -0.374829 8.3976 0.124171C4.3206 0.760171 0.9406 4.04417 0.1776 8.11117C-0.1904 10.0692 0.0216002 12.0632 0.7886 13.8762C0.8856 14.1072 0.9156 14.3222 0.8776 14.5152L0.0196002 18.8032C-0.0463998 19.1312 0.0566002 19.4702 0.2936 19.7062C0.4826 19.8962 0.7376 19.9992 1.0006 19.9992C1.0656 19.9992 1.1306 19.9932 1.1966 19.9802L5.4796 19.1232C5.7256 19.0762 5.9636 19.1452 6.1226 19.2112C7.9376 19.9782 9.9316 20.1892 11.8876 19.8222C15.9556 19.0592 19.2396 15.6792 19.8756 11.6022C20.3776 8.37517 19.3566 5.21317 17.0716 2.92817Z" fill="white"/>
</mask>
<g mask="url(#mask0)">
<g id="&#240;&#159;&#142;&#168; Color">
<rect id="Base" x="-2" y="-1" width="24" height="24" fill="#0D1C2E"/>
</g>
</g>
</g>
</svg>
