<svg width="32" height="32" viewBox="0 0 32 32" fill="none" xmlns="http://www.w3.org/2000/svg">
<path d="M21.3333 18.6667H10.6667C10.313 18.6667 9.97391 18.8071 9.72386 19.0572C9.47381 19.3072 9.33333 19.6464 9.33333 20C9.33333 20.3536 9.47381 20.6928 9.72386 20.9428C9.97391 21.1929 10.313 21.3333 10.6667 21.3333H21.3333C21.687 21.3333 22.0261 21.1929 22.2761 20.9428C22.5262 20.6928 22.6667 20.3536 22.6667 20C22.6667 19.6464 22.5262 19.3072 22.2761 19.0572C22.0261 18.8071 21.687 18.6667 21.3333 18.6667ZM21.3333 13.3333H13.3333C12.9797 13.3333 12.6406 13.4738 12.3905 13.7239C12.1405 13.9739 12 14.3131 12 14.6667C12 15.0203 12.1405 15.3594 12.3905 15.6095C12.6406 15.8595 12.9797 16 13.3333 16H21.3333C21.687 16 22.0261 15.8595 22.2761 15.6095C22.5262 15.3594 22.6667 15.0203 22.6667 14.6667C22.6667 14.3131 22.5262 13.9739 22.2761 13.7239C22.0261 13.4738 21.687 13.3333 21.3333 13.3333ZM26.6667 5.33334H22.6667V4.00001C22.6667 3.64638 22.5262 3.30724 22.2761 3.0572C22.0261 2.80715 21.687 2.66667 21.3333 2.66667C20.9797 2.66667 20.6406 2.80715 20.3905 3.0572C20.1405 3.30724 20 3.64638 20 4.00001V5.33334H17.3333V4.00001C17.3333 3.64638 17.1929 3.30724 16.9428 3.0572C16.6928 2.80715 16.3536 2.66667 16 2.66667C15.6464 2.66667 15.3072 2.80715 15.0572 3.0572C14.8071 3.30724 14.6667 3.64638 14.6667 4.00001V5.33334H12V4.00001C12 3.64638 11.8595 3.30724 11.6095 3.0572C11.3594 2.80715 11.0203 2.66667 10.6667 2.66667C10.313 2.66667 9.97391 2.80715 9.72386 3.0572C9.47381 3.30724 9.33333 3.64638 9.33333 4.00001V5.33334H5.33333C4.97971 5.33334 4.64057 5.47381 4.39052 5.72386C4.14048 5.97391 4 6.31305 4 6.66667V25.3333C4 26.3942 4.42143 27.4116 5.17157 28.1618C5.92172 28.9119 6.93913 29.3333 8 29.3333H24C25.0609 29.3333 26.0783 28.9119 26.8284 28.1618C27.5786 27.4116 28 26.3942 28 25.3333V6.66667C28 6.31305 27.8595 5.97391 27.6095 5.72386C27.3594 5.47381 27.0203 5.33334 26.6667 5.33334ZM25.3333 25.3333C25.3333 25.687 25.1929 26.0261 24.9428 26.2761C24.6928 26.5262 24.3536 26.6667 24 26.6667H8C7.64638 26.6667 7.30724 26.5262 7.05719 26.2761C6.80714 26.0261 6.66667 25.687 6.66667 25.3333V8.00001H9.33333V9.33334C9.33333 9.68696 9.47381 10.0261 9.72386 10.2761C9.97391 10.5262 10.313 10.6667 10.6667 10.6667C11.0203 10.6667 11.3594 10.5262 11.6095 10.2761C11.8595 10.0261 12 9.68696 12 9.33334V8.00001H14.6667V9.33334C14.6667 9.68696 14.8071 10.0261 15.0572 10.2761C15.3072 10.5262 15.6464 10.6667 16 10.6667C16.3536 10.6667 16.6928 10.5262 16.9428 10.2761C17.1929 10.0261 17.3333 9.68696 17.3333 9.33334V8.00001H20V9.33334C20 9.68696 20.1405 10.0261 20.3905 10.2761C20.6406 10.5262 20.9797 10.6667 21.3333 10.6667C21.687 10.6667 22.0261 10.5262 22.2761 10.2761C22.5262 10.0261 22.6667 9.68696 22.6667 9.33334V8.00001H25.3333V25.3333Z" fill="white"/>
</svg>
