<svg width="32" height="32" viewBox="0 0 32 32" fill="none" xmlns="http://www.w3.org/2000/svg">
<path d="M16.9467 15.9999L12.2267 11.2799C11.9783 11.0301 11.8389 10.6921 11.8389 10.3399C11.8389 9.98764 11.9783 9.64971 12.2267 9.39989C12.3506 9.27492 12.4981 9.17573 12.6606 9.10804C12.823 9.04034 12.9973 9.00549 13.1733 9.00549C13.3493 9.00549 13.5236 9.04034 13.6861 9.10804C13.8486 9.17573 13.996 9.27492 14.12 9.39989L19.7733 15.0532C19.8983 15.1772 19.9975 15.3246 20.0652 15.4871C20.1329 15.6496 20.1677 15.8239 20.1677 15.9999C20.1677 16.1759 20.1329 16.3502 20.0652 16.5127C19.9975 16.6751 19.8983 16.8226 19.7733 16.9466L14.12 22.6666C13.9954 22.7901 13.8477 22.8879 13.6852 22.9543C13.5228 23.0206 13.3488 23.0542 13.1733 23.0532C12.9979 23.0542 12.8239 23.0206 12.6615 22.9543C12.499 22.8879 12.3512 22.7901 12.2267 22.6666C11.9783 22.4167 11.8389 22.0788 11.8389 21.7266C11.8389 21.3743 11.9783 21.0364 12.2267 20.7866L16.9467 15.9999Z" fill="#E2F2FC"/>
</svg>
