<svg width="32" height="32" viewBox="0 0 32 32" fill="none" xmlns="http://www.w3.org/2000/svg">
<path d="M19.44 15.0667C20.046 14.3093 20.3794 13.37 20.3867 12.4C20.3867 11.2366 19.9245 10.1209 19.1018 9.29819C18.2792 8.47553 17.1634 8.01337 16 8.01337C14.8366 8.01337 13.7208 8.47553 12.8982 9.29819C12.0755 10.1209 11.6133 11.2366 11.6133 12.4C11.6206 13.37 11.954 14.3093 12.56 15.0667C11.3715 15.79 10.4391 16.8669 9.89333 18.1467C9.81695 18.3091 9.77413 18.4852 9.76744 18.6645C9.76075 18.8438 9.79032 19.0227 9.85438 19.1903C9.91845 19.3579 10.0157 19.5109 10.1403 19.64C10.2649 19.7691 10.4142 19.8718 10.5795 19.9418C10.7447 20.0119 10.9223 20.0478 11.1018 20.0476C11.2812 20.0473 11.4587 20.0108 11.6238 19.9403C11.7888 19.8698 11.9378 19.7667 12.0621 19.6372C12.1863 19.5077 12.2831 19.3545 12.3467 19.1867C12.6531 18.4704 13.1621 17.8591 13.8111 17.428C14.4601 16.9969 15.2209 16.7648 16 16.76C16.7814 16.7622 17.5451 16.9931 18.1967 17.4244C18.8483 17.8556 19.3593 18.4683 19.6667 19.1867C19.7687 19.4277 19.9395 19.6333 20.1576 19.778C20.3757 19.9226 20.6316 19.9998 20.8933 20C21.0717 19.9967 21.248 19.9605 21.4133 19.8934C21.7385 19.7552 21.9955 19.4937 22.128 19.1662C22.2605 18.8387 22.2576 18.4721 22.12 18.1467C21.5708 16.865 20.6335 15.7878 19.44 15.0667ZM16 14.0934C15.6593 14.0934 15.3262 13.9921 15.043 13.8025C14.7599 13.613 14.5395 13.3435 14.4097 13.0285C14.2799 12.7134 14.2466 12.3669 14.3141 12.0329C14.3815 11.6989 14.5467 11.3924 14.7886 11.1524C15.0305 10.9124 15.3382 10.7497 15.6727 10.6848C16.0072 10.62 16.3535 10.6559 16.6675 10.7882C16.9816 10.9204 17.2492 11.1429 17.4366 11.4275C17.624 11.7121 17.7226 12.046 17.72 12.3867C17.7165 12.8406 17.5337 13.2746 17.2115 13.5943C16.8894 13.914 16.4539 14.0934 16 14.0934ZM24 2.6667H8C6.93913 2.6667 5.92172 3.08813 5.17157 3.83828C4.42143 4.58842 4 5.60584 4 6.6667V21.3334C4 22.3942 4.42143 23.4117 5.17157 24.1618C5.92172 24.9119 6.93913 25.3334 8 25.3334H11.4533L15.0533 28.9467C15.1779 29.0703 15.3257 29.168 15.4881 29.2344C15.6506 29.3008 15.8245 29.3344 16 29.3334C16.3178 29.3334 16.6251 29.2199 16.8667 29.0134L21.16 25.3334H24C25.0609 25.3334 26.0783 24.9119 26.8284 24.1618C27.5786 23.4117 28 22.3942 28 21.3334V6.6667C28 5.60584 27.5786 4.58842 26.8284 3.83828C26.0783 3.08813 25.0609 2.6667 24 2.6667ZM25.3333 21.3334C25.3333 21.687 25.1929 22.0261 24.9428 22.2762C24.6928 22.5262 24.3536 22.6667 24 22.6667H20.6667C20.3489 22.6667 20.0415 22.7802 19.8 22.9867L16.0667 26.1867L12.9467 23.0534C12.8221 22.9298 12.6743 22.832 12.5119 22.7657C12.3494 22.6993 12.1755 22.6657 12 22.6667H8C7.64638 22.6667 7.30724 22.5262 7.05719 22.2762C6.80714 22.0261 6.66667 21.687 6.66667 21.3334V6.6667C6.66667 6.31308 6.80714 5.97394 7.05719 5.72389C7.30724 5.47385 7.64638 5.33337 8 5.33337H24C24.3536 5.33337 24.6928 5.47385 24.9428 5.72389C25.1929 5.97394 25.3333 6.31308 25.3333 6.6667V21.3334Z" fill="white"/>
</svg>
