<svg width="16" height="18" viewBox="0 0 16 18" fill="none" xmlns="http://www.w3.org/2000/svg">
<path d="M0.106667 8.4933C0.170125 8.32963 0.26528 8.1801 0.386667 8.0533L7.05333 1.38663C7.17765 1.26231 7.32524 1.1637 7.48767 1.09642C7.6501 1.02914 7.82419 0.994507 8 0.994507C8.35507 0.994507 8.69559 1.13556 8.94667 1.38663C9.07098 1.51095 9.1696 1.65853 9.23688 1.82096C9.30416 1.98339 9.33879 2.15748 9.33879 2.3333C9.33879 2.68836 9.19774 3.02889 8.94667 3.27996L4.54667 7.66663H14.6667C15.0203 7.66663 15.3594 7.80711 15.6095 8.05715C15.8595 8.3072 16 8.64634 16 8.99996C16 9.35359 15.8595 9.69272 15.6095 9.94277C15.3594 10.1928 15.0203 10.3333 14.6667 10.3333H4.54667L8.94667 14.72C9.07164 14.8439 9.17083 14.9914 9.23852 15.1539C9.30621 15.3163 9.34106 15.4906 9.34106 15.6666C9.34106 15.8426 9.30621 16.0169 9.23852 16.1794C9.17083 16.3419 9.07164 16.4893 8.94667 16.6133C8.82272 16.7383 8.67525 16.8375 8.51277 16.9052C8.35029 16.9728 8.17602 17.0077 8 17.0077C7.82398 17.0077 7.64971 16.9728 7.48723 16.9052C7.32475 16.8375 7.17728 16.7383 7.05333 16.6133L0.386667 9.94663C0.26528 9.81983 0.170125 9.6703 0.106667 9.50663C-0.0266914 9.18202 -0.0266914 8.81791 0.106667 8.4933Z" fill="#222222"/>
</svg>
